R[n_]:=Exp[2*I*Pi/n];

(*Projective measurement assemblages*)
(*csMUB*)
messt25n3k4:={{{{0,0,0},{0,0,0},{0,0,1}},{{0,0,0},{0,1,0},{0,0,0}},{{1,0,0},{0,0,0},{0,0,0}}},{{{1/3,1/3,1/3*R[3]},{1/3,1/3,1/3*R[3]},{1/3*R[3]^2,1/3*R[3]^2,1/3}},{{1/3,1/3*R[3]^2,1/3*R[3]^2},{1/3*R[3],1/3,1/3},{1/3*R[3],1/3,1/3}},{{1/3,1/3*R[3],1/3},{1/3*R[3]^2,1/3,1/3*R[3]^2},{1/3,1/3*R[3],1/3}}},{{{1/3,1/3,1/3},{1/3,1/3,1/3},{1/3,1/3,1/3}},{{1/3,1/3*R[3]^2,1/3*R[3]},{1/3*R[3],1/3,1/3*R[3]^2},{1/3*R[3]^2,1/3*R[3],1/3}},{{1/3,1/3*R[3],1/3*R[3]^2},{1/3*R[3]^2,1/3,1/3*R[3]},{1/3*R[3],1/3*R[3]^2,1/3}}},{{{1/3,1/3,1/3*R[3]^2},{1/3,1/3,1/3*R[3]^2},{1/3*R[3],1/3*R[3],1/3}},{{1/3,1/3*R[3]^2,1/3},{1/3*R[3],1/3,1/3*R[3]},{1/3,1/3*R[3]^2,1/3}},{{1/3,1/3*R[3],1/3*R[3]},{1/3*R[3]^2,1/3,1/3},{1/3*R[3]^2,1/3,1/3}}}}//FullSimplify;
